Chapter 10 Categorical Data | Data Wrangling with R
…
CSV

If you want to specify the data types while reading the data, use the readr package. We have explored how to import data into R in a previous chapter. We will read a subset of columns from the data set (it has 20 columns) which will cover both nominal and ordinal data types. To import the data, we will use the read_csv() function. The first input is the name of the data set,
analytics.csv. Ensure that the name is enclosed in single/double quotes.

read_csv("analytics_raw.csv", 
         col_types = cols_only(device = col_factor(levels = c("Desktop", "Tablet", "Mobile")), 
                               gender = col_factor(levels = c("female", "male", "NA")), 
                               user_rating = col_factor(levels = c("1", "2", "3", "4", "5"),
                                                        ordered = TRUE)))

## Warning: Missing column names filled in: 'X1' [1]

## # A tibble: 244,398 x 3
##    device  gender user_rating
##    <fct>   <fct>  <ord>      
##  1 Desktop female 4          
##  2 Mobile  <NA>   5          
##  3 Desktop <NA>   4          
##  4 Desktop <NA>   5          
##  5 Desktop <NA>   4          
##  6 Mobile  <NA>   4          
##  7 Desktop <NA>   4          
##  8 Desktop <NA>   4          
##  9 Desktop female 5          
## 10 Desktop <NA>   4          
## # ... with 244,388 more rows
…
