Chapter 5 Data Wrangling - 3 | Data Wrangling with R
…
5.2.1 Data

ecom <- 
  read_csv('https://raw.githubusercontent.com/rsquaredacademy/datasets/master/web.csv',
    col_types = cols_only(device = col_factor(levels = c("laptop", "tablet", "mobile")),
      referrer = col_factor(levels = c("bing", "direct", "social", "yahoo", "google")),
      purchase = col_logical(), bouncers = col_logical(), duration = col_double(),
      n_visit = col_double(), n_pages = col_double()
    )
  )

ecom

## # A tibble: 1,000 x 7
##    referrer device bouncers n_visit n_pages duration purchase
##    <fct>    <fct>  <lgl>      <dbl>   <dbl>    <dbl> <lgl>   
##  1 google   laptop TRUE          10       1      693 FALSE   
##  2 yahoo    tablet TRUE           9       1      459 FALSE   
##  3 direct   laptop TRUE           0       1      996 FALSE   
##  4 bing     tablet FALSE          3      18      468 TRUE    
##  5 yahoo    mobile TRUE           9       1      955 FALSE   
##  6 yahoo    laptop FALSE          5       5      135 FALSE   
##  7 yahoo    mobile TRUE          10       1       75 FALSE   
##  8 direct   mobile TRUE          10       1      908 FALSE   
##  9 bing     mobile FALSE          3      19      209 FALSE   
## 10 google   mobile TRUE           6       1      208 FALSE   
## # ... with 990 more rows
…
rename(ecom, time_on_site = duration)

## # A tibble: 1,000 x 7
##    referrer device bouncers n_visit n_pages time_on_site purchase
##    <fct>    <fct>  <lgl>      <dbl>   <dbl>        <dbl> <lgl>   
##  1 google   laptop TRUE          10       1          693 FALSE   
##  2 yahoo    tablet TRUE           9       1          459 FALSE   
##  3 direct   laptop TRUE           0       1          996 FALSE   
##  4 bing     tablet FALSE          3      18          468 TRUE    
##  5 yahoo    mobile TRUE           9       1          955 FALSE   
##  6 yahoo    laptop FALSE          5       5          135 FALSE   
##  7 yahoo    mobile TRUE          10       1           75 FALSE   
##  8 direct   mobile TRUE          10       1          908 FALSE   
##  9 bing     mobile FALSE          3      19          209 FALSE   
## 10 google   mobile TRUE           6       1          208 FALSE   
## # ... with 990 more rows
…
sample_n(ecom, 700)

## # A tibble: 700 x 7
##    referrer device bouncers n_visit n_pages duration purchase
##    <fct>    <fct>  <lgl>      <dbl>   <dbl>    <dbl> <lgl>   
##  1 bing     tablet FALSE          5       6      138 FALSE   
##  2 google   mobile TRUE           6       1      208 FALSE   
##  3 social   tablet TRUE           4       1      392 FALSE   
##  4 yahoo    tablet TRUE           6       1       67 FALSE   
##  5 social   mobile TRUE           1       1      958 FALSE   
##  6 google   laptop FALSE          2       6      174 FALSE   
##  7 yahoo    tablet FALSE          2      16      480 TRUE    
##  8 bing     mobile TRUE           9       1      650 FALSE   
##  9 yahoo    mobile FALSE          3      20      480 FALSE   
## 10 yahoo    mobile FALSE          3      11      176 FALSE   
## # ... with 690 more rows

We can combine the sampling functions with other dplyr functions as shown below
where we sample observation after grouping them according to the source of
traffic.

ecom %>%
  group_by(referrer) %>%
  sample_n(100)

## # A tibble: 500 x 7
## # Groups:   referrer [5]
##    referrer device bouncers n_visit n_pages duration purchase
##    <fct>    <fct>  <lgl>      <dbl>   <dbl>    <dbl> <lgl>   
##  1 bing     mobile TRUE           8       1      202 FALSE   
##  2 bing     laptop TRUE          10       1      777 FALSE   
##  3 bing     mobile TRUE          10       1      480 FALSE   
##  4 bing     laptop TRUE          10       1      947 FALSE   
##  5 bing     tablet FALSE          6       3       54 FALSE   
##  6 bing     laptop FALSE          4       3       48 FALSE   
##  7 bing     tablet TRUE           4       1      493 FALSE   
##  8 bing     laptop TRUE           8       1      585 FALSE   
##  9 bing     tablet FALSE          3      15      390 TRUE    
## 10 bing     tablet FALSE          3      15      195 FALSE   
## # ... with 490 more rows

sample_frac() allows a specific percentage of observations.

sample_frac(ecom, size = 0.7)

## # A tibble: 700 x 7
##    referrer device bouncers n_visit n_pages duration purchase
##    <fct>    <fct>  <lgl>      <dbl>   <dbl>    <dbl> <lgl>   
##  1 yahoo    tablet TRUE           5       1       10 FALSE   
##  2 social   mobile FALSE          7      16      352 TRUE    
##  3 bing     tablet FALSE          4      15      435 TRUE    
##  4 yahoo    mobile TRUE           7       1      561 FALSE   
##  5 social   mobile TRUE          10       1      463 FALSE   
##  6 social   laptop TRUE           7       1      991 FALSE   
##  7 direct   tablet TRUE           4       1      141 FALSE   
##  8 direct   tablet TRUE           2       1      891 FALSE   
##  9 google   tablet FALSE          1      12      216 FALSE   
## 10 google   laptop FALSE          6      13      325 TRUE    
## # ... with 690 more rows
…
case_when() is an alternative to if else. It allows us to lay down the
conditions clearly and makes the code more readable. In the below example, we
create a new column repeat_visit from n_visit (the number of previous visits).

ecom %>%
  mutate(
    repeat_visit = case_when(
      n_visit > 0 ~ TRUE,
      TRUE ~ FALSE
    )
  ) %>%
  select(n_visit, repeat_visit) 

## # A tibble: 1,000 x 2
##    n_visit repeat_visit
##      <dbl> <lgl>       
##  1      10 TRUE        
##  2       9 TRUE        
##  3       0 FALSE       
##  4       3 TRUE        
##  5       9 TRUE        
##  6       5 TRUE        
##  7      10 TRUE        
##  8      10 TRUE        
##  9       3 TRUE        
## 10       6 TRUE        
## # ... with 990 more rows
