Chapter 10 Categorical Data Analysis | Data Wrangling with R
…
group referrers with traffic below a threshold into a single category

10.2.1 Data

ecom <- 
  read_csv('https://raw.githubusercontent.com/rsquaredacademy/datasets/master/web.csv',
    col_types = cols_only(
      referrer = col_factor(levels = c("bing", "direct", "social", "yahoo", "google")),
      n_pages = col_double(), duration = col_double()
    )
  )

ecom

## # A tibble: 1,000 x 3
##    referrer n_pages duration
##    <fct>      <dbl>    <dbl>
##  1 google         1      693
##  2 yahoo          1      459
##  3 direct         1      996
##  4 bing          18      468
##  5 yahoo          1      955
##  6 yahoo          5      135
##  7 yahoo          1       75
##  8 direct         1      908
##  9 bing          19      209
## 10 google         1      208
## # ... with 990 more rows
…
10.7.1 Data

traffic <- 
  read_csv('https://raw.githubusercontent.com/rsquaredacademy/datasets/master/web_traffic.csv',
    col_types = list(
      col_factor(levels = c("affiliates", "bing", "direct", "facebook", 
        "yahoo", "google", "instagram", "twitter", "unknown")
      )
    )
  )

traffic

## # A tibble: 48,232 x 1
##    traffics
##    <fct>   
##  1 google  
##  2 google  
##  3 google  
##  4 google  
##  5 google  
##  6 google  
##  7 google  
##  8 google  
##  9 google  
## 10 google  
## # ... with 48,222 more rows
…
