Chapter 2 Import Data - Advanced | Data Wrangling with R
…
2.8 Statistical Softwares

We will use the haven package to read data from files of other statistical softwares such as:

SAS

SPSS

STATA

2.8.1 STATA

read_stata('airline.dta')  

## # A tibble: 32 x 6
##     year     y     w     r     l     k
##    <dbl> <dbl> <dbl> <dbl> <dbl> <dbl>
##  1  1948  1.21 0.243 0.145  1.41 0.612
##  2  1949  1.35 0.260 0.218  1.38 0.559
##  3  1950  1.57 0.278 0.316  1.39 0.573
##  4  1951  1.95 0.297 0.394  1.55 0.564
##  5  1952  2.27 0.310 0.356  1.80 0.574
##  6  1953  2.73 0.322 0.359  1.93 0.711
##  7  1954  3.03 0.335 0.403  1.96 0.776
##  8  1955  3.56 0.350 0.396  2.12 0.827
##  9  1956  3.98 0.361 0.382  2.43 0.800
## 10  1957  4.42 0.379 0.305  2.71 0.921
## # ... with 22 more rows

2.8.2 SPSS

read_spss('employee.sav')  

## # A tibble: 474 x 9
##       id gender       educ    jobcat  salary salbegin jobtime   prevexp minority
##    <dbl> <chr+lb> <dbl+lb> <dbl+lbl> <dbl+l> <dbl+lb> <dbl+l> <dbl+lbl> <dbl+lb>
##  1     1 m [Male]  15 [15] 3 [Manag~   57000    27000      98 144         0 [No]
##  2     2 m [Male]  16 [16] 1 [Cleri~   40200    18750      98  36         0 [No]
##  3     3 f [Fema~  12 [12] 1 [Cleri~   21450    12000      98 381         0 [No]
##  4     4 f [Fema~   8 [8]  1 [Cleri~   21900    13200      98 190         0 [No]
##  5     5 m [Male]  15 [15] 1 [Cleri~   45000    21000      98 138         0 [No]
##  6     6 m [Male]  15 [15] 1 [Cleri~   32100    13500      98  67         0 [No]
##  7     7 m [Male]  15 [15] 1 [Cleri~   36000    18750      98 114         0 [No]
##  8     8 f [Fema~  12 [12] 1 [Cleri~   21900     9750      98   0 [mis~   0 [No]
##  9     9 f [Fema~  15 [15] 1 [Cleri~   27900    12750      98 115         0 [No]
## 10    10 f [Fema~  12 [12] 1 [Cleri~   24000    13500      98 244         0 [No]
## # ... with 464 more rows

2.8.3 SAS

read_sas('airline.sas7bdat')

## # A tibble: 32 x 6
##     YEAR     Y     W     R     L     K
##    <dbl> <dbl> <dbl> <dbl> <dbl> <dbl>
##  1  1948  1.21 0.243 0.145  1.41 0.612
##  2  1949  1.35 0.260 0.218  1.38 0.559
##  3  1950  1.57 0.278 0.316  1.39 0.573
##  4  1951  1.95 0.297 0.394  1.55 0.564
##  5  1952  2.27 0.310 0.356  1.80 0.574
##  6  1953  2.73 0.322 0.359  1.93 0.711
##  7  1954  3.03 0.335 0.403  1.96 0.776
##  8  1955  3.56 0.350 0.396  2.12 0.827
##  9  1956  3.98 0.361 0.382  2.43 0.800
## 10  1957  4.42 0.379 0.305  2.71 0.921
## # ... with 22 more rows
…
