Chapter 1 Import Data - Basics | Data Wrangling with R
…
## cols(
##   id = col_double(),
##   female = col_double(),
##   race = col_double(),
##   ses = col_double(),
##   schtyp = col_double(),
##   prog = col_double(),
##   read = col_double(),
##   write = col_double(),
##   math = col_double(),
##   science = col_double(),
##   socst = col_double()
## )

## # A tibble: 200 x 11
##       id female  race   ses schtyp  prog  read write  math science socst
##    <dbl>  <dbl> <dbl> <dbl>  <dbl> <dbl> <dbl> <dbl> <dbl>   <dbl> <dbl>
##  1    70      0     4     1      1     1    57    52    41      47    57
##  2   121      1     4     2      1     3    68    59    53      63    61
##  3    86      0     4     3      1     1    44    33    54      58    31
##  4   141      0     4     3      1     3    63    44    47      53    56
##  5   172      0     4     2      1     2    47    52    57      53    61
##  6   113      0     4     2      1     2    44    52    51      63    61
##  7    50      0     3     2      1     1    50    59    42      53    61
##  8    11      0     1     2      1     2    34    46    45      39    36
##  9    84      0     4     2      1     1    63    57    54      58    51
## 10    48      0     3     2      1     2    57    55    52      50    51
## # ... with 190 more rows
…
We will first read the data set without indicating the presence or absence of
column names.

read_csv('hsb3.csv')

## Warning: Duplicated column names deduplicated: '1' => '1_1' [5], '1' =>
## '1_2' [6], '57' => '57_1' [11]

## # A tibble: 199 x 11
##     `70`   `0`   `4`   `1` `1_1` `1_2`  `57`  `52`  `41`  `47` `57_1`
##    <dbl> <dbl> <dbl> <dbl> <dbl> <dbl> <dbl> <dbl> <dbl> <dbl>  <dbl>
##  1   121     1     4     2     1     3    68    59    53    63     61
##  2    86     0     4     3     1     1    44    33    54    58     31
##  3   141     0     4     3     1     3    63    44    47    53     56
##  4   172     0     4     2     1     2    47    52    57    53     61
##  5   113     0     4     2     1     2    44    52    51    63     61
##  6    50     0     3     2     1     1    50    59    42    53     61
##  7    11     0     1     2     1     2    34    46    45    39     36
##  8    84     0     4     2     1     1    63    57    54    58     51
##  9    48     0     3     2     1     2    57    55    52    50     51
## 10    75     0     4     2     1     3    60    46    51    53     61
## # ... with 189 more rows

As you can see, in the absence of column names, readr has converted the
first row of the data into the column names. As a result, the data is
not read properly and there are lots of missing values and warnings.
If the column names are absent (i.e. the column names are provided in a
separate file), use the col_names argument and set it to FALSE. Now readr
will not convert the first row of data into column name and instead it
will generate new column names.

read_csv('hsb3.csv', col_names = FALSE)

## # A tibble: 200 x 11
##       X1    X2    X3    X4    X5    X6    X7    X8    X9   X10   X11
##    <dbl> <dbl> <dbl> <dbl> <dbl> <dbl> <dbl> <dbl> <dbl> <dbl> <dbl>
##  1    70     0     4     1     1     1    57    52    41    47    57
##  2   121     1     4     2     1     3    68    59    53    63    61
##  3    86     0     4     3     1     1    44    33    54    58    31
##  4   141     0     4     3     1     3    63    44    47    53    56
##  5   172     0     4     2     1     2    47    52    57    53    61
##  6   113     0     4     2     1     2    44    52    51    63    61
##  7    50     0     3     2     1     1    50    59    42    53    61
##  8    11     0     1     2     1     2    34    46    45    39    36
##  9    84     0     4     2     1     1    63    57    54    58    51
## 10    48     0     3     2     1     2    57    55    52    50    51
## # ... with 190 more rows

We may not always want to use the column names generated by readr and
instead specify new column names. In such cases, we can use col_names to
supply column names as shown in the below example. Let us reread hsb3
and specify column names.

cnames <- c("id", "gender", "race", "socio_economic_status", "school_type", "program", "read", "write", "math", "science", "socst")
read_csv('hsb3.csv', col_names = cnames)

## # A tibble: 200 x 11
##       id gender  race socio_economic_stat~ school_type program  read write  math
##    <dbl>  <dbl> <dbl>                <dbl>       <dbl>   <dbl> <dbl> <dbl> <dbl>
##  1    70      0     4                    1           1       1    57    52    41
##  2   121      1     4                    2           1       3    68    59    53
##  3    86      0     4                    3           1       1    44    33    54
##  4   141      0     4                    3           1       3    63    44    47
##  5   172      0     4                    2           1       2    47    52    57
##  6   113      0     4                    2           1       2    44    52    51
##  7    50      0     3                    2           1       1    50    59    42
##  8    11      0     1                    2           1       2    34    46    45
##  9    84      0     4                    2           1       1    63    57    54
## 10    48      0     3                    2           1       2    57    55    52
## # ... with 190 more rows, and 2 more variables: science <dbl>, socst <dbl>
…
Let us read the data without skipping any lines/rows and observe the result.

read_csv('hsb4.csv')

## Warning: 201 parsing failures.
## row col  expected     actual       file
##   3  -- 1 columns 11 columns 'hsb4.csv'
##   4  -- 1 columns 11 columns 'hsb4.csv'
##   5  -- 1 columns 11 columns 'hsb4.csv'
##   6  -- 1 columns 11 columns 'hsb4.csv'
##   7  -- 1 columns 11 columns 'hsb4.csv'
## ... ... ......... .......... ..........
## See problems(...) for more details.

## # A tibble: 203 x 1
##    `# A dataset containing demographic information and standardized`
##    <chr>                                                            
##  1 # test scores of high school students.                           
##  2 # http://www.ats.ucla.edu/stat/spss/whatstat/whatstat.htm        
##  3 id                                                               
##  4 70                                                               
##  5 121                                                              
##  6 86                                                               
##  7 141                                                              
##  8 172                                                              
##  9 113                                                              
## 10 50                                                               
## # ... with 193 more rows

Use skip argument to indicate the number of lines/rows to be skipped while
reading data from a file. For example, if the file has contents other than data
in the first few lines, we need to skip them before reading the data. In the
below example, we will skip the first 3 lines as they contain information about
the data set which we do not need.

read_csv('hsb4.csv', skip = 3)

## # A tibble: 200 x 11
##       id female  race   ses schtyp  prog  read write  math science socst
##    <dbl>  <dbl> <dbl> <dbl>  <dbl> <dbl> <dbl> <dbl> <dbl>   <dbl> <dbl>
##  1    70      0     4     1      1     1    57    52    41      47    57
##  2   121      1     4     2      1     3    68    59    53      63    61
##  3    86      0     4     3      1     1    44    33    54      58    31
##  4   141      0     4     3      1     3    63    44    47      53    56
##  5   172      0     4     2      1     2    47    52    57      53    61
##  6   113      0     4     2      1     2    44    52    51      63    61
##  7    50      0     3     2      1     1    50    59    42      53    61
##  8    11      0     1     2      1     2    34    46    45      39    36
##  9    84      0     4     2      1     1    63    57    54      58    51
## 10    48      0     3     2      1     2    57    55    52      50    51
## # ... with 190 more rows
…
read_csv('hsb2.csv', n_max = 120)

## # A tibble: 120 x 11
##       id female  race   ses schtyp  prog  read write  math science socst
##    <dbl>  <dbl> <dbl> <dbl>  <dbl> <dbl> <dbl> <dbl> <dbl>   <dbl> <dbl>
##  1    70      0     4     1      1     1    57    52    41      47    57
##  2   121      1     4     2      1     3    68    59    53      63    61
##  3    86      0     4     3      1     1    44    33    54      58    31
##  4   141      0     4     3      1     3    63    44    47      53    56
##  5   172      0     4     2      1     2    47    52    57      53    61
##  6   113      0     4     2      1     2    44    52    51      63    61
##  7    50      0     3     2      1     1    50    59    42      53    61
##  8    11      0     1     2      1     2    34    46    45      39    36
##  9    84      0     4     2      1     1    63    57    54      58    51
## 10    48      0     3     2      1     2    57    55    52      50    51
## # ... with 110 more rows
…
While specifying the data types we also need to specify the categories of the
categorical/qualitative variable. To do that, we use the levels argument
within col_factor(). Let us read data from the hsb2.csv file to understand
data type specification.

read_csv('hsb2.csv', col_types = list(
  col_integer(), col_factor(levels = c("0", "1")), 
  col_factor(levels = c("1", "2", "3", "4")), col_factor(levels = c("1", "2", "3")), 
  col_factor(levels = c("1", "2")), col_factor(levels = c("1", "2", "3")),
  col_integer(), col_integer(), col_integer(), col_integer(),
  col_integer())            
)

## # A tibble: 200 x 11
##       id female race  ses   schtyp prog   read write  math science socst
##    <int> <fct>  <fct> <fct> <fct>  <fct> <int> <int> <int>   <int> <int>
##  1    70 0      4     1     1      1        57    52    41      47    57
##  2   121 1      4     2     1      3        68    59    53      63    61
##  3    86 0      4     3     1      1        44    33    54      58    31
##  4   141 0      4     3     1      3        63    44    47      53    56
##  5   172 0      4     2     1      2        47    52    57      53    61
##  6   113 0      4     2     1      2        44    52    51      63    61
##  7    50 0      3     2     1      1        50    59    42      53    61
##  8    11 0      1     2     1      2        34    46    45      39    36
##  9    84 0      4     2     1      1        63    57    54      58    51
## 10    48 0      3     2     1      2        57    55    52      50    51
## # ... with 190 more rows
…
In case of the second scenario, we will use cols_only() to specify the
columns to be read i.e. instead of using list() to supply the data types, we
will use cols_only() and provide the following details:

column name

column type using col_types argument

read_csv('hsb2.csv', col_types = cols_only(id = col_integer(),
  prog = col_factor(levels = c("1", "2", "3")), read = col_integer())
)

## # A tibble: 200 x 3
##       id prog   read
##    <int> <fct> <int>
##  1    70 1        57
##  2   121 3        68
##  3    86 1        44
##  4   141 3        63
##  5   172 2        47
##  6   113 2        44
##  7    50 1        50
##  8    11 2        34
##  9    84 1        63
## 10    48 2        57
## # ... with 190 more rows
…
