Chapter 6 Pipe Operator | Data Wrangling with R
…
6.3 Data

ecom <- 
  read_csv('https://raw.githubusercontent.com/rsquaredacademy/datasets/master/web.csv',
    col_types = cols_only(
      referrer = col_factor(levels = c("bing", "direct", "social", "yahoo", "google")),
      n_pages = col_double(), duration = col_double(), purchase = col_logical()
    )
  )

ecom

## # A tibble: 1,000 x 4
##    referrer n_pages duration purchase
##    <fct>      <dbl>    <dbl> <lgl>   
##  1 google         1      693 FALSE   
##  2 yahoo          1      459 FALSE   
##  3 direct         1      996 FALSE   
##  4 bing          18      468 TRUE    
##  5 yahoo          1      955 FALSE   
##  6 yahoo          5      135 FALSE   
##  7 yahoo          1       75 FALSE   
##  8 direct         1      908 FALSE   
##  9 bing          19      209 FALSE   
## 10 google         1      208 FALSE   
## # ... with 990 more rows
…
